if_Statement_and_Inferred_Latches/tb_incomp_if2_net.vcd
$date
	Thu Jun  3 21:05:47 2021
$end
$version
	Icarus Verilog
$end
$timescale
	1ps
$end
$scope module tb_incomp_if2_net $end
$var wire 1 ! y $end
$var reg 1 " i0 $end
$var reg 1 # i1 $end
$var reg 1 $ i2 $end
$var reg 1 % i3 $end
$scope module uut $end
$var wire 1 & _00_ $end
$var wire 1 ' _01_ $end
$var wire 1 ( _02_ $end
$var wire 1 ) _03_ $end
$var wire 1 * _04_ $end
$var wire 1 + _06_ $end
$var wire 1 " i0 $end
$var wire 1 # i1 $end
$var wire 1 $ i2 $end
$var wire 1 % i3 $end
$var wire 1 ! y $end
$var wire 1 , _09_ $end
$var wire 1 - _08_ $end
$var wire 1 . _07_ $end
$var wire 1 / _05_ $end
$scope module _10_ $end
$var wire 1 ( A $end
$var wire 1 0 VGND $end
$var wire 1 1 VNB $end
$var wire 1 2 VPB $end
$var wire 1 3 VPWR $end
$var wire 1 - Y $end
$scope module base $end
$var wire 1 ( A $end
$var wire 1 4 VGND $end
$var wire 1 5 VNB $end
$var wire 1 6 VPB $end
$var wire 1 7 VPWR $end
$var wire 1 - Y $end
$var wire 1 8 not0_out_Y $end
$upscope $end
$upscope $end
$scope module _11_ $end
$var wire 1 ) A $end
$var wire 1 * B $end
$var wire 1 9 VGND $end
$var wire 1 : VNB $end
$var wire 1 ; VPB $end
$var wire 1 < VPWR $end
$var wire 1 , Y $end
$scope module base $end
$var wire 1 ) A $end
$var wire 1 * B $end
$var wire 1 = VGND $end
$var wire 1 > VNB $end
$var wire 1 ? VPB $end
$var wire 1 @ VPWR $end
$var wire 1 , Y $end
$var wire 1 A nand0_out_Y $end
$upscope $end
$upscope $end
$scope module _12_ $end
$var wire 1 * A1 $end
$var wire 1 - A2 $end
$var wire 1 , B1 $end
$var wire 1 B VGND $end
$var wire 1 C VNB $end
$var wire 1 D VPB $end
$var wire 1 E VPWR $end
$var wire 1 / Y $end
$scope module base $end
$var wire 1 * A1 $end
$var wire 1 - A2 $end
$var wire 1 , B1 $end
$var wire 1 F VGND $end
$var wire 1 G VNB $end
$var wire 1 H VPB $end
$var wire 1 I VPWR $end
$var wire 1 / Y $end
$var wire 1 J nand0_out_Y $end
$var wire 1 K or0_out $end
$upscope $end
$upscope $end
$scope module _13_ $end
$var wire 1 * A $end
$var wire 1 + B $end
$var wire 1 L VGND $end
$var wire 1 M VNB $end
$var wire 1 N VPB $end
$var wire 1 O VPWR $end
$var wire 1 . X $end
$scope module base $end
$var wire 1 * A $end
$var wire 1 + B $end
$var wire 1 P VGND $end
$var wire 1 Q VNB $end
$var wire 1 R VPB $end
$var wire 1 S VPWR $end
$var wire 1 . X $end
$var wire 1 T or0_out_X $end
$upscope $end
$upscope $end
$scope module _14_ $end
$var wire 1 & D $end
$var wire 1 ' E $end
$var wire 1 ! Q $end
$scope module _TECHMAP_DLATCH_P $end
$var wire 1 & D $end
$var wire 1 ' GATE $end
$var wire 1 U VGND $end
$var wire 1 V VNB $end
$var wire 1 W VPB $end
$var wire 1 X VPWR $end
$var wire 1 ! Q $end
$scope module base $end
$var wire 1 & D $end
$var wire 1 Y D_delayed $end
$var wire 1 ' GATE $end
$var wire 1 Z GATE_delayed $end
$var wire 1 ! Q $end
$var wire 1 [ VGND $end
$var wire 1 \ VNB $end
$var wire 1 ] VPB $end
$var wire 1 ^ VPWR $end
$var wire 1 _ buf_Q $end
$var wire 1 ` awake $end
$var reg 1 a notifier $end
$upscope $end
$upscope $end
$upscope $end
$upscope $end
$upscope $end
$enddefinitions $end
#0
$dumpvars
xa
1`
z_
1^
1]
0\
0[
zZ
zY
1X
1W
0V
0U
0T
1S
1R
0Q
0P
1O
1N
0M
0L
1K
0J
1I
1H
0G
0F
1E
1D
0C
0B
1A
1@
1?
0>
0=
1<
1;
0:
09
18
17
16
05
04
13
12
01
00
0/
0.
1-
1,
0+
0*
0)
0(
0'
0&
0%
0$
0#
0"
z!
$end
#37000
1)
1#
#67000
1&
1/
1J
0K
0-
08
1(
1%
#74000
0)
0#
#111000
1)
1#
#134000
0&
0/
0J
1K
1-
18
0(
0%
#148000
0)
0#
#157000
1'
1.
1T
1+
1$
#185000
1)
1#
#201000
1&
1/
1J
0K
0-
08
1(
1%
#222000
0)
0#
#259000
1)
1#
#268000
0&
0/
0J
1K
1-
18
0(
0%
#296000
0)
0#
#314000
0'
0.
0T
0+
0$
#317000
1'
1.
1T
1*
1"
#333000
1&
1/
1J
0,
0A
1)
1#
#335000
0-
08
1(
1%
#370000
0&
0/
0J
1,
1A
0)
0#
#402000
1-
18
0(
0%
#407000
1&
1/
1J
0,
0A
1)
1#
#444000
0&
0/
0J
1,
1A
0)
0#
#469000
0-
08
1(
1%
#471000
1+
1$
#481000
1&
1/
1J
0,
0A
1)
1#
#518000
0&
0/
0J
1,
1A
0)
0#
#536000
1-
18
0(
0%
#555000
1&
1/
1J
0,
0A
1)
1#
#592000
0&
0/
0J
1,
1A
0)
0#
#603000
0-
08
1(
1%
#628000
0+
0$
#629000
1&
1/
1J
0,
0A
1)
1#
#634000
1,
0'
0.
1A
0K
0T
0*
0"
#666000
0)
0#
#670000
0&
0/
0J
1K
1-
18
0(
0%
#703000
1)
1#
#737000
1&
1/
1J
0K
0-
08
1(
1%
#740000
0)
0#
#777000
1)
1#
#785000
1'
1.
1T
1+
1$
#804000
0&
0/
0J
1K
1-
18
0(
0%
#814000
0)
0#
#851000
1)
1#
#871000
1&
1/
1J
0K
0-
08
1(
1%
#888000
0)
0#
#925000
1)
1#
#938000
0&
0/
0J
1K
1-
18
0(
0%
#942000
0'
0.
0T
0+
0$
#951000
1&
1/
1J
0,
1'
1.
0A
1T
1*
1"
#962000
0&
0/
0J
1,
1A
0)
0#
#999000
1&
1/
1J
0,
0A
1)
1#
#1005000
0-
08
1(
1%
#1036000
0&
0/
0J
1,
1A
0)
0#
#1072000
1-
18
0(
0%
#1073000
1&
1/
1J
0,
0A
1)
1#
#1099000
1+
1$
#1110000
0&
0/
0J
1,
1A
0)
0#
#1139000
0-
08
1(
1%
#1147000
1&
1/
1J
0,
0A
1)
1#
#1184000
0&
0/
0J
1,
1A
0)
0#
#1206000
1-
18
0(
0%
#1221000
1&
1/
1J
0,
0A
1)
1#
#1256000
0+
0$
#1258000
0&
0/
0J
1,
1A
0)
0#
#1268000
0'
0.
0T
0*
0"
#1273000
1&
1/
1J
0K
0-
08
1(
1%
#1295000
1)
1#
#1332000
0)
0#
#1340000
0&
0/
0J
1K
1-
18
0(
0%
#1369000
1)
1#
#1406000
0)
0#
#1407000
1&
1/
1J
0K
0-
08
1(
1%
#1413000
1'
1.
1T
1+
1$
#1443000
1)
1#
#1474000
0&
0/
0J
1K
1-
18
0(
0%
#1480000
0)
0#
#1517000
1)
1#
#1541000
1&
1/
1J
0K
0-
08
1(
1%
#1554000
0)
0#
#1570000
0'
0.
0T
0+
0$
#1585000
0&
0/
0J
1'
1.
1K
1T
1*
1"
#1591000
1&
1/
1J
0,
0A
1)
1#
#1608000
1-
18
0(
0%
#1628000
0&
0/
0J
1,
1A
0)
0#
#1665000
1&
1/
1J
0,
0A
1)
1#
#1675000
0-
08
1(
1%
#1702000
0&
0/
0J
1,
1A
0)
0#
#1727000
1+
1$
#1739000
1&
1/
1J
0,
0A
1)
1#
#1742000
1-
18
0(
0%
#1776000
0&
0/
0J
1,
1A
0)
0#
#1809000
0-
08
1(
1%
#1813000
1&
1/
1J
0,
0A
1)
1#
#1850000
0&
0/
0J
1,
1A
0)
0#
#1876000
1-
18
0(
0%
#1884000
0+
0$
#1887000
1&
1/
1J
0,
0A
1)
1#
#1902000
0&
0/
0J
1,
0'
0.
1A
0T
0*
0"
#1924000
0)
0#
#1943000
1&
1/
1J
0K
0-
08
1(
1%
#1961000
1)
1#
#1998000
0)
0#
#2010000
0&
0/
0J
1K
1-
18
0(
0%
#2035000
1)
1#
#2041000
1'
1.
1T
1+
1$
#2072000
0)
0#
#2077000
1&
1/
1J
0K
0-
08
1(
1%
#2109000
1)
1#
#2144000
0&
0/
0J
1K
1-
18
0(
0%
#2146000
0)
0#
#2183000
1)
1#
#2198000
0'
0.
0T
0+
0$
#2211000
1&
1/
1J
0K
0-
08
1(
1%
#2219000
1&
1/
0,
1J
1'
1.
0A
1K
1T
1*
1"
#2220000
0&
0/
0J
1,
1A
0)
0#
#2257000
1&
1/
1J
0,
0A
1)
1#
#2278000
1-
18
0(
0%
#2294000
0&
0/
0J
1,
1A
0)
0#
#2331000
1&
1/
1J
0,
0A
1)
1#
#2345000
0-
08
1(
1%
#2355000
1+
1$
#2368000
0&
0/
0J
1,
1A
0)
0#
#2405000
1&
1/
1J
0,
0A
1)
1#
#2412000
1-
18
0(
0%
#2442000
0&
0/
0J
1,
1A
0)
0#
#2479000
1&
1/
1J
0,
0-
0A
08
1)
1#
1(
1%
#2512000
0+
0$
#2516000
0&
0/
0J
1,
1A
0)
0#
#2536000
1&
1/
1J
0'
0.
0K
0T
0*
0"
#2546000
0&
0/
0J
1K
1-
18
0(
0%
#2553000
1)
1#
#2590000
0)
0#
#2613000
1&
1/
1J
0K
0-
08
1(
1%
#2627000
1)
1#
#2664000
0)
0#
#2669000
1'
1.
1T
1+
1$
#2680000
0&
0/
0J
1K
1-
18
0(
0%
#2701000
1)
1#
#2738000
0)
0#
#2747000
1&
1/
1J
0K
0-
08
1(
1%
#2775000
1)
1#
#2812000
0)
0#
#2814000
0&
0/
0J
1K
1-
18
0(
0%
#2826000
0'
0.
0T
0+
0$
#2849000
1)
1#
#2853000
1&
1/
1J
0,
1'
1.
0A
1T
1*
1"
#2881000
0-
08
1(
1%
#2886000
0&
0/
0J
1,
1A
0)
0#
#2923000
1&
1/
1J
0,
0A
1)
1#
#2948000
1-
18
0(
0%
#2960000
0&
0/
0J
1,
1A
0)
0#
#2983000
1+
1$
#2997000
1&
1/
1J
0,
0A
1)
1#
