for_and_for_generate/tb_demux_for_net.vcd
$date
	Sat Jun  5 13:20:40 2021
$end
$version
	Icarus Verilog
$end
$timescale
	1ps
$end
$scope module tb_demux_for_net $end
$var wire 1 ! o7 $end
$var wire 1 " o6 $end
$var wire 1 # o5 $end
$var wire 1 $ o4 $end
$var wire 1 % o3 $end
$var wire 1 & o2 $end
$var wire 1 ' o1 $end
$var wire 1 ( o0 $end
$var reg 1 ) clk $end
$var reg 1 * i $end
$var reg 1 + reset $end
$var reg 3 , sel [2:0] $end
$scope module uut $end
$var wire 1 - _23_ $end
$var wire 1 * i $end
$var wire 1 ( o0 $end
$var wire 1 ' o1 $end
$var wire 1 & o2 $end
$var wire 1 % o3 $end
$var wire 1 $ o4 $end
$var wire 1 # o5 $end
$var wire 1 " o6 $end
$var wire 1 ! o7 $end
$var wire 3 . sel [2:0] $end
$var wire 8 / y_int [7:0] $end
$var wire 1 0 _26_ $end
$var wire 1 1 _25_ $end
$var wire 1 2 _24_ $end
$var wire 1 3 _22_ $end
$var wire 1 4 _21_ $end
$var wire 1 5 _20_ $end
$var wire 1 6 _19_ $end
$var wire 1 7 _18_ $end
$var wire 1 8 _17_ $end
$var wire 1 9 _16_ $end
$var wire 1 : _15_ $end
$var wire 1 ; _14_ $end
$var wire 1 < _13_ $end
$var wire 1 = _12_ $end
$var wire 1 > _11_ $end
$var wire 1 ? _10_ $end
$var wire 1 @ _09_ $end
$var wire 1 A _08_ $end
$scope module _27_ $end
$var wire 1 - A $end
$var wire 1 2 B $end
$var wire 1 B VGND $end
$var wire 1 C VNB $end
$var wire 1 D VPB $end
$var wire 1 E VPWR $end
$var wire 1 = Y $end
$scope module base $end
$var wire 1 - A $end
$var wire 1 2 B $end
$var wire 1 F VGND $end
$var wire 1 G VNB $end
$var wire 1 H VPB $end
$var wire 1 I VPWR $end
$var wire 1 = Y $end
$var wire 1 J nand0_out_Y $end
$upscope $end
$upscope $end
$scope module _28_ $end
$var wire 1 A A $end
$var wire 1 @ B $end
$var wire 1 K VGND $end
$var wire 1 L VNB $end
$var wire 1 M VPB $end
$var wire 1 N VPWR $end
$var wire 1 < Y $end
$scope module base $end
$var wire 1 A A $end
$var wire 1 @ B $end
$var wire 1 O VGND $end
$var wire 1 P VNB $end
$var wire 1 Q VPB $end
$var wire 1 R VPWR $end
$var wire 1 < Y $end
$var wire 1 S nand0_out_Y $end
$upscope $end
$upscope $end
$scope module _29_ $end
$var wire 1 = A $end
$var wire 1 < B $end
$var wire 1 T VGND $end
$var wire 1 U VNB $end
$var wire 1 V VPB $end
$var wire 1 W VPWR $end
$var wire 1 1 Y $end
$scope module base $end
$var wire 1 = A $end
$var wire 1 < B $end
$var wire 1 X VGND $end
$var wire 1 Y VNB $end
$var wire 1 Z VPB $end
$var wire 1 [ VPWR $end
$var wire 1 1 Y $end
$var wire 1 \ nor0_out_Y $end
$upscope $end
$upscope $end
$scope module _30_ $end
$var wire 1 @ A $end
$var wire 1 A B_N $end
$var wire 1 ] VGND $end
$var wire 1 ^ VNB $end
$var wire 1 _ VPB $end
$var wire 1 ` VPWR $end
$var wire 1 : X $end
$scope module base $end
$var wire 1 @ A $end
$var wire 1 A B_N $end
$var wire 1 a VGND $end
$var wire 1 b VNB $end
$var wire 1 c VPB $end
$var wire 1 d VPWR $end
$var wire 1 : X $end
$var wire 1 e not0_out $end
$var wire 1 f or0_out_X $end
$upscope $end
$upscope $end
$scope module _31_ $end
$var wire 1 = A $end
$var wire 1 : B $end
$var wire 1 g VGND $end
$var wire 1 h VNB $end
$var wire 1 i VPB $end
$var wire 1 j VPWR $end
$var wire 1 0 Y $end
$scope module base $end
$var wire 1 = A $end
$var wire 1 : B $end
$var wire 1 k VGND $end
$var wire 1 l VNB $end
$var wire 1 m VPB $end
$var wire 1 n VPWR $end
$var wire 1 0 Y $end
$var wire 1 o nor0_out_Y $end
$upscope $end
$upscope $end
$scope module _32_ $end
$var wire 1 A A $end
$var wire 1 @ B_N $end
$var wire 1 p VGND $end
$var wire 1 q VNB $end
$var wire 1 r VPB $end
$var wire 1 s VPWR $end
$var wire 1 7 X $end
$scope module base $end
$var wire 1 A A $end
$var wire 1 @ B_N $end
$var wire 1 t VGND $end
$var wire 1 u VNB $end
$var wire 1 v VPB $end
$var wire 1 w VPWR $end
$var wire 1 7 X $end
$var wire 1 x not0_out $end
$var wire 1 y or0_out_X $end
$upscope $end
$upscope $end
$scope module _33_ $end
$var wire 1 = A $end
$var wire 1 7 B $end
$var wire 1 z VGND $end
$var wire 1 { VNB $end
$var wire 1 | VPB $end
$var wire 1 } VPWR $end
$var wire 1 ? Y $end
$scope module base $end
$var wire 1 = A $end
$var wire 1 7 B $end
$var wire 1 ~ VGND $end
$var wire 1 !" VNB $end
$var wire 1 "" VPB $end
$var wire 1 #" VPWR $end
$var wire 1 ? Y $end
$var wire 1 $" nor0_out_Y $end
$upscope $end
$upscope $end
$scope module _34_ $end
$var wire 1 A A $end
$var wire 1 @ B $end
$var wire 1 = C $end
$var wire 1 %" VGND $end
$var wire 1 &" VNB $end
$var wire 1 '" VPB $end
$var wire 1 (" VPWR $end
$var wire 1 > Y $end
$scope module base $end
$var wire 1 A A $end
$var wire 1 @ B $end
$var wire 1 = C $end
$var wire 1 )" VGND $end
$var wire 1 *" VNB $end
$var wire 1 +" VPB $end
$var wire 1 ," VPWR $end
$var wire 1 > Y $end
$var wire 1 -" nor0_out_Y $end
$upscope $end
$upscope $end
$scope module _35_ $end
$var wire 1 2 A $end
$var wire 1 ." VGND $end
$var wire 1 /" VNB $end
$var wire 1 0" VPB $end
$var wire 1 1" VPWR $end
$var wire 1 5 Y $end
$scope module base $end
$var wire 1 2 A $end
$var wire 1 2" VGND $end
$var wire 1 3" VNB $end
$var wire 1 4" VPB $end
$var wire 1 5" VPWR $end
$var wire 1 5 Y $end
$var wire 1 6" not0_out_Y $end
$upscope $end
$upscope $end
$scope module _36_ $end
$var wire 1 5 A $end
$var wire 1 - B $end
$var wire 1 7" VGND $end
$var wire 1 8" VNB $end
$var wire 1 9" VPB $end
$var wire 1 :" VPWR $end
$var wire 1 4 Y $end
$scope module base $end
$var wire 1 5 A $end
$var wire 1 - B $end
$var wire 1 ;" VGND $end
$var wire 1 <" VNB $end
$var wire 1 =" VPB $end
$var wire 1 >" VPWR $end
$var wire 1 4 Y $end
$var wire 1 ?" nand0_out_Y $end
$upscope $end
$upscope $end
$scope module _37_ $end
$var wire 1 < A $end
$var wire 1 4 B $end
$var wire 1 @" VGND $end
$var wire 1 A" VNB $end
$var wire 1 B" VPB $end
$var wire 1 C" VPWR $end
$var wire 1 ; Y $end
$scope module base $end
$var wire 1 < A $end
$var wire 1 4 B $end
$var wire 1 D" VGND $end
$var wire 1 E" VNB $end
$var wire 1 F" VPB $end
$var wire 1 G" VPWR $end
$var wire 1 ; Y $end
$var wire 1 H" nor0_out_Y $end
$upscope $end
$upscope $end
$scope module _38_ $end
$var wire 1 : A $end
$var wire 1 4 B $end
$var wire 1 I" VGND $end
$var wire 1 J" VNB $end
$var wire 1 K" VPB $end
$var wire 1 L" VPWR $end
$var wire 1 9 Y $end
$scope module base $end
$var wire 1 : A $end
$var wire 1 4 B $end
$var wire 1 M" VGND $end
$var wire 1 N" VNB $end
$var wire 1 O" VPB $end
$var wire 1 P" VPWR $end
$var wire 1 9 Y $end
$var wire 1 Q" nor0_out_Y $end
$upscope $end
$upscope $end
$scope module _39_ $end
$var wire 1 7 A $end
$var wire 1 4 B $end
$var wire 1 R" VGND $end
$var wire 1 S" VNB $end
$var wire 1 T" VPB $end
$var wire 1 U" VPWR $end
$var wire 1 8 Y $end
$scope module base $end
$var wire 1 7 A $end
$var wire 1 4 B $end
$var wire 1 V" VGND $end
$var wire 1 W" VNB $end
$var wire 1 X" VPB $end
$var wire 1 Y" VPWR $end
$var wire 1 8 Y $end
$var wire 1 Z" nor0_out_Y $end
$upscope $end
$upscope $end
$scope module _40_ $end
$var wire 1 - A $end
$var wire 1 [" VGND $end
$var wire 1 \" VNB $end
$var wire 1 ]" VPB $end
$var wire 1 ^" VPWR $end
$var wire 1 3 Y $end
$scope module base $end
$var wire 1 - A $end
$var wire 1 _" VGND $end
$var wire 1 `" VNB $end
$var wire 1 a" VPB $end
$var wire 1 b" VPWR $end
$var wire 1 3 Y $end
$var wire 1 c" not0_out_Y $end
$upscope $end
$upscope $end
$scope module _41_ $end
$var wire 1 A A $end
$var wire 1 @ B $end
$var wire 1 2 C $end
$var wire 1 3 D $end
$var wire 1 d" VGND $end
$var wire 1 e" VNB $end
$var wire 1 f" VPB $end
$var wire 1 g" VPWR $end
$var wire 1 6 Y $end
$scope module base $end
$var wire 1 A A $end
$var wire 1 @ B $end
$var wire 1 2 C $end
$var wire 1 3 D $end
$var wire 1 h" VGND $end
$var wire 1 i" VNB $end
$var wire 1 j" VPB $end
$var wire 1 k" VPWR $end
$var wire 1 6 Y $end
$var wire 1 l" nor0_out_Y $end
$upscope $end
$upscope $end
$upscope $end
$upscope $end
$enddefinitions $end
#0
$dumpvars
0l"
1k"
1j"
0i"
0h"
1g"
1f"
0e"
0d"
1c"
1b"
1a"
0`"
0_"
1^"
1]"
0\"
0["
0Z"
1Y"
1X"
0W"
0V"
1U"
1T"
0S"
0R"
0Q"
1P"
1O"
0N"
0M"
1L"
1K"
0J"
0I"
0H"
1G"
1F"
0E"
0D"
1C"
1B"
0A"
0@"
1?"
1>"
1="
0<"
0;"
1:"
19"
08"
07"
x6"
15"
14"
03"
02"
11"
10"
0/"
0."
0-"
1,"
1+"
0*"
0)"
1("
1'"
0&"
0%"
0$"
1#"
1""
0!"
0~
1}
1|
0{
0z
xy
xx
1w
1v
0u
0t
1s
1r
0q
0p
0o
1n
1m
0l
0k
1j
1i
0h
0g
xf
xe
1d
1c
0b
0a
1`
1_
0^
0]
0\
1[
1Z
0Y
0X
1W
1V
0U
0T
xS
1R
1Q
0P
0O
1N
1M
0L
0K
1J
1I
1H
0G
0F
1E
1D
0C
0B
xA
x@
0?
0>
1=
x<
0;
x:
09
08
x7
06
x5
14
13
x2
01
00
b0 /
bx .
0-
bx ,
0+
0*
0)
0(
0'
0&
0%
0$
0#
0"
0!
$end
#1000
1:
1f
17
1<
15
1e
1y
1S
1x
16"
0A
0@
02
b0 ,
b0 .
1+
#11000
0+
#17000
b1 /
1(
16
1l"
04
03
0?"
0c"
1-
1*
#34000
b0 /
0(
06
0l"
14
13
1?"
1c"
0-
0*
#51000
b1 /
1(
16
1l"
04
03
0?"
0c"
1-
1*
#68000
b0 /
0(
06
0l"
14
13
1?"
1c"
0-
0*
#85000
b1 /
1(
16
1l"
04
03
0?"
0c"
1-
1*
#102000
b0 /
0(
06
0l"
14
13
1?"
1c"
0-
0*
#119000
b1 /
1(
16
1l"
04
03
0?"
0c"
1-
1*
#136000
b0 /
0(
06
0l"
14
13
1?"
1c"
0-
0*
#153000
b1 /
1(
16
1l"
04
03
0?"
0c"
1-
1*
#170000
b0 /
0(
06
0l"
14
13
1?"
1c"
0-
0*
#187000
b1 /
1(
16
1l"
04
03
0?"
0c"
1-
1*
#204000
b0 /
0(
06
0l"
14
13
1?"
1c"
0-
0*
#221000
b1 /
1(
16
1l"
04
03
0?"
0c"
1-
1*
#238000
b0 /
0(
06
0l"
14
13
1?"
1c"
0-
0*
#255000
b1 /
1(
16
1l"
04
03
0?"
0c"
1-
1*
#272000
b0 /
0(
06
0l"
14
13
1?"
1c"
0-
0*
#289000
b1 /
1(
16
1l"
04
03
0?"
0c"
1-
1*
#300000
1'
18
1Z"
07
0y
b10 /
0(
06
0x
0l"
1@
b1 ,
b1 .
1)
#306000
b0 /
0'
08
0Z"
14
13
1?"
1c"
0-
0*
#323000
b10 /
1'
18
1Z"
04
03
0?"
0c"
1-
1*
#340000
b0 /
0'
08
0Z"
14
13
1?"
1c"
0-
0*
#357000
b10 /
1'
18
1Z"
04
03
0?"
0c"
1-
1*
#374000
b0 /
0'
08
0Z"
14
13
1?"
1c"
0-
0*
#391000
b10 /
1'
18
1Z"
04
03
0?"
0c"
1-
1*
#408000
b0 /
0'
08
0Z"
14
13
1?"
1c"
0-
0*
#425000
b10 /
1'
18
1Z"
04
03
0?"
0c"
1-
1*
#442000
b0 /
0'
08
0Z"
14
13
1?"
1c"
0-
0*
#459000
b10 /
1'
18
1Z"
04
03
0?"
0c"
1-
1*
#476000
b0 /
0'
08
0Z"
14
13
1?"
1c"
0-
0*
#493000
b10 /
1'
18
1Z"
04
03
0?"
0c"
1-
1*
#510000
b0 /
0'
08
0Z"
14
13
1?"
1c"
0-
0*
#527000
b10 /
1'
18
1Z"
04
03
0?"
0c"
1-
1*
#544000
b0 /
0'
08
0Z"
14
13
1?"
1c"
0-
0*
#561000
b10 /
1'
18
1Z"
04
03
0?"
0c"
1-
1*
#578000
b0 /
0'
08
0Z"
14
13
1?"
1c"
0-
0*
#595000
b10 /
1'
18
1Z"
04
03
0?"
0c"
1-
1*
#600000
0)
#612000
b0 /
0'
08
0Z"
14
13
1?"
1c"
0-
0*
#629000
b10 /
1'
18
1Z"
04
03
0?"
0c"
1-
1*
#646000
b0 /
0'
08
0Z"
14
13
1?"
1c"
0-
0*
#663000
b10 /
1'
18
1Z"
04
03
0?"
0c"
1-
1*
#680000
b0 /
0'
08
0Z"
14
13
1?"
1c"
0-
0*
#697000
b10 /
1'
18
1Z"
04
03
0?"
0c"
1-
1*
#714000
b0 /
0'
08
0Z"
14
13
1?"
1c"
0-
0*
#731000
b10 /
1'
18
1Z"
04
03
0?"
0c"
1-
1*
#748000
b0 /
0'
08
0Z"
14
13
1?"
1c"
0-
0*
#765000
b10 /
1'
18
1Z"
04
03
0?"
0c"
1-
1*
#782000
b0 /
0'
08
0Z"
14
13
1?"
1c"
0-
0*
#799000
b10 /
1'
18
1Z"
04
03
0?"
0c"
1-
1*
#816000
b0 /
0'
08
0Z"
14
13
1?"
1c"
0-
0*
#833000
b10 /
1'
18
1Z"
04
03
0?"
0c"
1-
1*
#850000
b0 /
0'
08
0Z"
14
13
1?"
1c"
0-
0*
#867000
b10 /
1'
18
1Z"
04
03
0?"
0c"
1-
1*
#884000
b0 /
0'
08
0Z"
14
13
1?"
1c"
0-
0*
#900000
0:
0f
17
0e
1y
1x
1A
0@
b10 ,
b10 .
1)
#901000
b100 /
1&
19
1Q"
04
03
0?"
0c"
1-
1*
#918000
b0 /
0&
09
0Q"
14
13
1?"
1c"
0-
0*
#935000
b100 /
1&
19
1Q"
04
03
0?"
0c"
1-
1*
#952000
b0 /
0&
09
0Q"
14
13
1?"
1c"
0-
0*
#969000
b100 /
1&
19
1Q"
04
03
0?"
0c"
1-
1*
#986000
b0 /
0&
09
0Q"
14
13
1?"
1c"
0-
0*
#1003000
b100 /
1&
19
1Q"
04
03
0?"
0c"
1-
1*
#1020000
b0 /
0&
09
0Q"
14
13
1?"
1c"
0-
0*
#1037000
b100 /
1&
19
1Q"
04
03
0?"
0c"
1-
1*
#1054000
b0 /
0&
09
0Q"
14
13
1?"
1c"
0-
0*
#1071000
b100 /
1&
19
1Q"
04
03
0?"
0c"
1-
1*
#1088000
b0 /
0&
09
0Q"
14
13
1?"
1c"
0-
0*
#1105000
b100 /
1&
19
1Q"
04
03
0?"
0c"
1-
1*
#1122000
b0 /
0&
09
0Q"
14
13
1?"
1c"
0-
0*
#1139000
b100 /
1&
19
1Q"
04
03
0?"
0c"
1-
1*
#1156000
b0 /
0&
09
0Q"
14
13
1?"
1c"
0-
0*
#1173000
b100 /
1&
19
1Q"
04
03
0?"
0c"
1-
1*
#1190000
b0 /
0&
09
0Q"
14
13
1?"
1c"
0-
0*
#1200000
0)
#1207000
b100 /
1&
19
1Q"
04
03
0?"
0c"
1-
1*
#1224000
b0 /
0&
09
0Q"
14
13
1?"
1c"
0-
0*
#1241000
b100 /
1&
19
1Q"
04
03
0?"
0c"
1-
1*
#1258000
b0 /
0&
09
0Q"
14
13
1?"
1c"
0-
0*
#1275000
b100 /
1&
19
1Q"
04
03
0?"
0c"
1-
1*
#1292000
b0 /
0&
09
0Q"
14
13
1?"
1c"
0-
0*
#1309000
b100 /
1&
19
1Q"
04
03
0?"
0c"
1-
1*
#1326000
b0 /
0&
09
0Q"
14
13
1?"
1c"
0-
0*
#1343000
b100 /
1&
19
1Q"
04
03
0?"
0c"
1-
1*
#1360000
b0 /
0&
09
0Q"
14
13
1?"
1c"
0-
0*
#1377000
b100 /
1&
19
1Q"
04
03
0?"
0c"
1-
1*
#1394000
b0 /
0&
09
0Q"
14
13
1?"
1c"
0-
0*
#1411000
b100 /
1&
19
1Q"
04
03
0?"
0c"
1-
1*
#1428000
b0 /
0&
09
0Q"
14
13
1?"
1c"
0-
0*
#1445000
b100 /
1&
19
1Q"
04
03
0?"
0c"
1-
1*
#1462000
b0 /
0&
09
0Q"
14
13
1?"
1c"
0-
0*
#1479000
b100 /
1&
19
1Q"
04
03
0?"
0c"
1-
1*
#1496000
b0 /
0&
09
0Q"
14
13
1?"
1c"
0-
0*
#1500000
0<
1:
0S
1f
0x
1@
b11 ,
b11 .
1)
#1513000
b1000 /
1%
1;
1H"
04
03
0?"
0c"
1-
1*
#1530000
b0 /
0%
0;
0H"
14
13
1?"
1c"
0-
0*
#1547000
b1000 /
1%
1;
1H"
04
03
0?"
0c"
1-
1*
#1564000
b0 /
0%
0;
0H"
14
13
1?"
1c"
0-
0*
#1581000
b1000 /
1%
1;
1H"
04
03
0?"
0c"
1-
1*
#1598000
b0 /
0%
0;
0H"
14
13
1?"
1c"
0-
0*
#1615000
b1000 /
1%
1;
1H"
04
03
0?"
0c"
1-
1*
#1632000
b0 /
0%
0;
0H"
14
13
1?"
1c"
0-
0*
#1649000
b1000 /
1%
1;
1H"
04
03
0?"
0c"
1-
1*
#1666000
b0 /
0%
0;
0H"
14
13
1?"
1c"
0-
0*
#1683000
b1000 /
1%
1;
1H"
04
03
0?"
0c"
1-
1*
#1700000
b0 /
0%
0;
0H"
14
13
1?"
1c"
0-
0*
#1717000
b1000 /
1%
1;
1H"
04
03
0?"
0c"
1-
1*
#1734000
b0 /
0%
0;
0H"
14
13
1?"
1c"
0-
0*
#1751000
b1000 /
1%
1;
1H"
04
03
0?"
0c"
1-
1*
#1768000
b0 /
0%
0;
0H"
14
13
1?"
1c"
0-
0*
#1785000
b1000 /
1%
1;
1H"
04
03
0?"
0c"
1-
1*
#1800000
0)
#1802000
b0 /
0%
0;
0H"
14
13
1?"
1c"
0-
0*
#1819000
b1000 /
1%
1;
1H"
04
03
0?"
0c"
1-
1*
#1836000
b0 /
0%
0;
0H"
14
13
1?"
1c"
0-
0*
#1853000
b1000 /
1%
1;
1H"
04
03
0?"
0c"
1-
1*
#1870000
b0 /
0%
0;
0H"
14
13
1?"
1c"
0-
0*
#1887000
b1000 /
1%
1;
1H"
04
03
0?"
0c"
1-
1*
#1904000
b0 /
0%
0;
0H"
14
13
1?"
1c"
0-
0*
#1921000
b1000 /
1%
1;
1H"
04
03
0?"
0c"
1-
1*
#1938000
b0 /
0%
0;
0H"
14
13
1?"
1c"
0-
0*
#1955000
b1000 /
1%
1;
1H"
04
03
0?"
0c"
1-
1*
#1972000
b0 /
0%
0;
0H"
14
13
1?"
1c"
0-
0*
#1989000
b1000 /
1%
1;
1H"
04
03
0?"
0c"
1-
1*
#2006000
b0 /
0%
0;
0H"
14
13
1?"
1c"
0-
0*
#2023000
b1000 /
1%
1;
1H"
04
03
0?"
0c"
1-
1*
#2040000
b0 /
0%
0;
0H"
14
13
1?"
1c"
0-
0*
#2057000
b1000 /
1%
1;
1H"
04
03
0?"
0c"
1-
1*
#2074000
b0 /
0%
0;
0H"
14
13
1?"
1c"
0-
0*
#2091000
b1000 /
1%
1;
1H"
04
03
0?"
0c"
1-
1*
#2100000
0%
0;
0&
09
0"
00
b10000 /
1$
1>
14
0H"
0Q"
0o
1-"
1?"
1<
1:
0=
05
1e
1S
1f
1x
0J
06"
0A
0@
12
b100 ,
b100 .
1)
#2108000
b0 /
0$
0>
0-"
1=
13
1J
1c"
0-
0*
#2125000
b10000 /
1$
1>
1-"
0=
03
0J
0c"
1-
1*
#2142000
b0 /
0$
0>
0-"
1=
13
1J
1c"
0-
0*
#2159000
b10000 /
1$
1>
1-"
0=
03
0J
0c"
1-
1*
#2176000
b0 /
0$
0>
0-"
1=
13
1J
1c"
0-
0*
#2193000
b10000 /
1$
1>
1-"
0=
03
0J
0c"
1-
1*
#2210000
b0 /
0$
0>
0-"
1=
13
1J
1c"
0-
0*
#2227000
b10000 /
1$
1>
1-"
0=
03
0J
0c"
1-
1*
#2244000
b0 /
0$
0>
0-"
1=
13
1J
1c"
0-
0*
#2261000
b10000 /
1$
1>
1-"
0=
03
0J
0c"
1-
1*
#2278000
b0 /
0$
0>
0-"
1=
13
1J
1c"
0-
0*
#2295000
b10000 /
1$
1>
1-"
0=
03
0J
0c"
1-
1*
#2312000
b0 /
0$
0>
0-"
1=
13
1J
1c"
0-
0*
#2329000
b10000 /
1$
1>
1-"
0=
03
0J
0c"
1-
1*
#2346000
b0 /
0$
0>
0-"
1=
13
1J
1c"
0-
0*
#2363000
b10000 /
1$
1>
1-"
0=
03
0J
0c"
1-
1*
#2380000
b0 /
0$
0>
0-"
1=
13
1J
1c"
0-
0*
#2397000
b10000 /
1$
1>
1-"
0=
03
0J
0c"
1-
1*
#2400000
0)
#2414000
b0 /
0$
0>
0-"
1=
13
1J
1c"
0-
0*
#2431000
b10000 /
1$
1>
1-"
0=
03
0J
0c"
1-
1*
#2448000
b0 /
0$
0>
0-"
1=
13
1J
1c"
0-
0*
#2465000
b10000 /
1$
1>
1-"
0=
03
0J
0c"
1-
1*
#2482000
b0 /
0$
0>
0-"
1=
13
1J
1c"
0-
0*
#2499000
b10000 /
1$
1>
1-"
0=
03
0J
0c"
1-
1*
#2516000
b0 /
0$
0>
0-"
1=
13
1J
1c"
0-
0*
#2533000
b10000 /
1$
1>
1-"
0=
03
0J
0c"
1-
1*
#2550000
b0 /
0$
0>
0-"
1=
13
1J
1c"
0-
0*
#2567000
b10000 /
1$
1>
1-"
0=
03
0J
0c"
1-
1*
#2584000
b0 /
0$
0>
0-"
1=
13
1J
1c"
0-
0*
#2601000
b10000 /
1$
1>
1-"
0=
03
0J
0c"
1-
1*
#2618000
b0 /
0$
0>
0-"
1=
13
1J
1c"
0-
0*
#2635000
b10000 /
1$
1>
1-"
0=
03
0J
0c"
1-
1*
#2652000
b0 /
0$
0>
0-"
1=
13
1J
1c"
0-
0*
#2669000
b10000 /
1$
1>
1-"
0=
03
0J
0c"
1-
1*
#2686000
b0 /
0$
0>
0-"
1=
13
1J
1c"
0-
0*
#2700000
07
0y
0x
1@
b101 ,
b101 .
1)
#2703000
b100000 /
1#
1?
1$"
0=
03
0J
0c"
1-
1*
#2720000
b0 /
0#
0?
0$"
1=
13
1J
1c"
0-
0*
#2737000
b100000 /
1#
1?
1$"
0=
03
0J
0c"
1-
1*
#2754000
b0 /
0#
0?
0$"
1=
13
1J
1c"
0-
0*
#2771000
b100000 /
1#
1?
1$"
0=
03
0J
0c"
1-
1*
#2788000
b0 /
0#
0?
0$"
1=
13
1J
1c"
0-
0*
#2805000
b100000 /
1#
1?
1$"
0=
03
0J
0c"
1-
1*
#2822000
b0 /
0#
0?
0$"
1=
13
1J
1c"
0-
0*
#2839000
b100000 /
1#
1?
1$"
0=
03
0J
0c"
1-
1*
#2856000
b0 /
0#
0?
0$"
1=
13
1J
1c"
0-
0*
#2873000
b100000 /
1#
1?
1$"
0=
03
0J
0c"
1-
1*
#2890000
b0 /
0#
0?
0$"
1=
13
1J
1c"
0-
0*
#2907000
b100000 /
1#
1?
1$"
0=
03
0J
0c"
1-
1*
#2924000
b0 /
0#
0?
0$"
1=
13
1J
1c"
0-
0*
#2941000
b100000 /
1#
1?
1$"
0=
03
0J
0c"
1-
1*
#2958000
b0 /
0#
0?
0$"
1=
13
1J
1c"
0-
0*
#2975000
b100000 /
1#
1?
1$"
0=
03
0J
0c"
1-
1*
#2992000
b0 /
0#
0?
0$"
1=
13
1J
1c"
0-
0*
#3000000
0)
#3009000
b100000 /
1#
1?
1$"
0=
03
0J
0c"
1-
1*
#3026000
b0 /
0#
0?
0$"
1=
13
1J
1c"
0-
0*
#3043000
b100000 /
1#
1?
1$"
0=
03
0J
0c"
1-
1*
#3060000
b0 /
0#
0?
0$"
1=
13
1J
1c"
0-
0*
#3077000
b100000 /
1#
1?
1$"
0=
03
0J
0c"
1-
1*
#3094000
b0 /
0#
0?
0$"
1=
13
1J
1c"
0-
0*
#3111000
b100000 /
1#
1?
1$"
0=
03
0J
0c"
1-
1*
#3128000
b0 /
0#
0?
0$"
1=
13
1J
1c"
0-
0*
#3145000
b100000 /
1#
1?
1$"
0=
03
0J
0c"
1-
1*
#3162000
b0 /
0#
0?
0$"
1=
13
1J
1c"
0-
0*
#3179000
b100000 /
1#
1?
1$"
0=
03
0J
0c"
1-
1*
#3196000
b0 /
0#
0?
0$"
1=
13
1J
1c"
0-
0*
#3213000
b100000 /
1#
1?
1$"
0=
03
0J
0c"
1-
1*
#3230000
b0 /
0#
0?
0$"
1=
13
1J
1c"
0-
0*
#3247000
b100000 /
1#
1?
1$"
0=
03
0J
0c"
1-
1*
#3264000
b0 /
0#
0?
0$"
1=
13
1J
1c"
0-
0*
#3281000
b100000 /
1#
1?
1$"
0=
03
0J
0c"
1-
1*
#3298000
b0 /
0#
0?
0$"
1=
13
1J
1c"
0-
0*
#3300000
0:
0f
17
0e
1y
1x
1A
0@
b110 ,
b110 .
1)
#3315000
b1000000 /
1"
10
1o
0=
03
0J
0c"
1-
1*
#3332000
b0 /
0"
00
0o
1=
13
1J
1c"
0-
0*
#3349000
b1000000 /
1"
10
1o
0=
03
0J
0c"
1-
1*
#3366000
b0 /
0"
00
0o
1=
13
1J
1c"
0-
0*
#3383000
b1000000 /
1"
10
1o
0=
03
0J
0c"
1-
1*
#3400000
b0 /
0"
00
0o
1=
13
1J
1c"
0-
0*
#3417000
b1000000 /
1"
10
1o
0=
03
0J
0c"
1-
1*
#3434000
b0 /
0"
00
0o
1=
13
1J
1c"
0-
0*
#3451000
b1000000 /
1"
10
1o
0=
03
0J
0c"
1-
1*
#3468000
b0 /
0"
00
0o
1=
13
1J
1c"
0-
0*
#3485000
b1000000 /
1"
10
1o
0=
03
0J
0c"
1-
1*
#3502000
b0 /
0"
00
0o
1=
13
1J
1c"
0-
0*
#3519000
b1000000 /
1"
10
1o
0=
03
0J
0c"
1-
1*
#3536000
b0 /
0"
00
0o
1=
13
1J
1c"
0-
0*
#3553000
b1000000 /
1"
10
1o
0=
03
0J
0c"
1-
1*
#3570000
b0 /
0"
00
0o
1=
13
1J
1c"
0-
0*
#3587000
b1000000 /
1"
10
1o
0=
03
0J
0c"
1-
1*
#3600000
0)
#3604000
b0 /
0"
00
0o
1=
13
1J
1c"
0-
0*
#3621000
b1000000 /
1"
10
1o
0=
03
0J
0c"
1-
1*
#3638000
b0 /
0"
00
0o
1=
13
1J
1c"
0-
0*
#3655000
b1000000 /
1"
10
1o
0=
03
0J
0c"
1-
1*
#3672000
b0 /
0"
00
0o
1=
13
1J
1c"
0-
0*
#3689000
b1000000 /
1"
10
1o
0=
03
0J
0c"
1-
1*
#3706000
b0 /
0"
00
0o
1=
13
1J
1c"
0-
0*
#3723000
b1000000 /
1"
10
1o
0=
03
0J
0c"
1-
1*
#3740000
b0 /
0"
00
0o
1=
13
1J
1c"
0-
0*
#3757000
b1000000 /
1"
10
1o
0=
03
0J
0c"
1-
1*
#3774000
b0 /
0"
00
0o
1=
13
1J
1c"
0-
0*
#3791000
b1000000 /
1"
10
1o
0=
03
0J
0c"
1-
1*
#3808000
b0 /
0"
00
0o
1=
13
1J
1c"
0-
0*
#3825000
b1000000 /
1"
10
1o
0=
03
0J
0c"
1-
1*
#3842000
b0 /
0"
00
0o
1=
13
1J
1c"
0-
0*
#3859000
b1000000 /
1"
10
1o
0=
03
0J
0c"
1-
1*
#3876000
b0 /
0"
00
0o
1=
13
1J
1c"
0-
0*
#3893000
b1000000 /
1"
10
1o
0=
03
0J
0c"
1-
1*
#3900000
1!
11
b10000000 /
0"
00
1\
0o
0<
1:
0S
1f
0x
1@
b111 ,
b111 .
1)
#3910000
b0 /
0!
01
0\
1=
13
1J
1c"
0-
0*
