case_and_its_Associated_Caveats/tb_bad_case_net.vcd
$date
	Sat Jun  5 12:48:02 2021
$end
$version
	Icarus Verilog
$end
$timescale
	1ps
$end
$scope module tb_bad_case_net $end
$var wire 1 ! y $end
$var reg 1 " clk $end
$var reg 1 # i0 $end
$var reg 1 $ i1 $end
$var reg 1 % i2 $end
$var reg 1 & i3 $end
$var reg 1 ' reset $end
$var reg 2 ( sel [1:0] $end
$scope module uut $end
$var wire 1 ) _00_ $end
$var wire 1 * _07_ $end
$var wire 1 + _09_ $end
$var wire 1 , _10_ $end
$var wire 1 # i0 $end
$var wire 1 $ i1 $end
$var wire 1 % i2 $end
$var wire 1 & i3 $end
$var wire 2 - sel [1:0] $end
$var wire 1 ! y $end
$var wire 1 . _12_ $end
$var wire 1 / _11_ $end
$var wire 1 0 _08_ $end
$var wire 1 1 _06_ $end
$var wire 1 2 _05_ $end
$var wire 1 3 _04_ $end
$var wire 1 4 _03_ $end
$var wire 1 5 _02_ $end
$var wire 1 6 _01_ $end
$scope module _21_ $end
$var wire 1 ) A $end
$var wire 1 2 B $end
$var wire 1 7 VGND $end
$var wire 1 8 VNB $end
$var wire 1 9 VPB $end
$var wire 1 : VPWR $end
$var wire 1 / Y $end
$scope module base $end
$var wire 1 ) A $end
$var wire 1 2 B $end
$var wire 1 ; VGND $end
$var wire 1 < VNB $end
$var wire 1 = VPB $end
$var wire 1 > VPWR $end
$var wire 1 / Y $end
$var wire 1 ? nor0_out_Y $end
$upscope $end
$upscope $end
$scope module _22_ $end
$var wire 1 2 A $end
$var wire 1 @ VGND $end
$var wire 1 A VNB $end
$var wire 1 B VPB $end
$var wire 1 C VPWR $end
$var wire 1 . Y $end
$scope module base $end
$var wire 1 2 A $end
$var wire 1 D VGND $end
$var wire 1 E VNB $end
$var wire 1 F VPB $end
$var wire 1 G VPWR $end
$var wire 1 . Y $end
$var wire 1 H not0_out_Y $end
$upscope $end
$upscope $end
$scope module _23_ $end
$var wire 1 , A1 $end
$var wire 1 . A2 $end
$var wire 1 4 B1 $end
$var wire 1 I VGND $end
$var wire 1 J VNB $end
$var wire 1 K VPB $end
$var wire 1 L VPWR $end
$var wire 1 5 Y $end
$scope module base $end
$var wire 1 , A1 $end
$var wire 1 . A2 $end
$var wire 1 4 B1 $end
$var wire 1 M VGND $end
$var wire 1 N VNB $end
$var wire 1 O VPB $end
$var wire 1 P VPWR $end
$var wire 1 5 Y $end
$var wire 1 Q nand0_out_Y $end
$var wire 1 R or0_out $end
$upscope $end
$upscope $end
$scope module _24_ $end
$var wire 1 4 A $end
$var wire 1 S VGND $end
$var wire 1 T VNB $end
$var wire 1 U VPB $end
$var wire 1 V VPWR $end
$var wire 1 3 Y $end
$scope module base $end
$var wire 1 4 A $end
$var wire 1 W VGND $end
$var wire 1 X VNB $end
$var wire 1 Y VPB $end
$var wire 1 Z VPWR $end
$var wire 1 3 Y $end
$var wire 1 [ not0_out_Y $end
$upscope $end
$upscope $end
$scope module _25_ $end
$var wire 1 + A $end
$var wire 1 2 B_N $end
$var wire 1 \ VGND $end
$var wire 1 ] VNB $end
$var wire 1 ^ VPB $end
$var wire 1 _ VPWR $end
$var wire 1 1 X $end
$scope module base $end
$var wire 1 + A $end
$var wire 1 2 B_N $end
$var wire 1 ` VGND $end
$var wire 1 a VNB $end
$var wire 1 b VPB $end
$var wire 1 c VPWR $end
$var wire 1 1 X $end
$var wire 1 d not0_out $end
$var wire 1 e or0_out_X $end
$upscope $end
$upscope $end
$scope module _26_ $end
$var wire 1 2 A1 $end
$var wire 1 * A2 $end
$var wire 1 3 B1 $end
$var wire 1 1 C1 $end
$var wire 1 f VGND $end
$var wire 1 g VNB $end
$var wire 1 h VPB $end
$var wire 1 i VPWR $end
$var wire 1 0 Y $end
$scope module base $end
$var wire 1 2 A1 $end
$var wire 1 * A2 $end
$var wire 1 3 B1 $end
$var wire 1 1 C1 $end
$var wire 1 j VGND $end
$var wire 1 k VNB $end
$var wire 1 l VPB $end
$var wire 1 m VPWR $end
$var wire 1 0 Y $end
$var wire 1 n nand0_out_Y $end
$var wire 1 o or0_out $end
$upscope $end
$upscope $end
$scope module _27_ $end
$var wire 1 / A1 $end
$var wire 1 5 A2 $end
$var wire 1 0 B1 $end
$var wire 1 p VGND $end
$var wire 1 q VNB $end
$var wire 1 r VPB $end
$var wire 1 s VPWR $end
$var wire 1 6 Y $end
$scope module base $end
$var wire 1 / A1 $end
$var wire 1 5 A2 $end
$var wire 1 0 B1 $end
$var wire 1 t VGND $end
$var wire 1 u VNB $end
$var wire 1 v VPB $end
$var wire 1 w VPWR $end
$var wire 1 6 Y $end
$var wire 1 x nand0_out_Y $end
$var wire 1 y or0_out $end
$upscope $end
$upscope $end
$upscope $end
$upscope $end
$enddefinitions $end
#0
$dumpvars
xy
xx
1w
1v
0u
0t
1s
1r
0q
0p
xo
xn
1m
1l
0k
0j
1i
1h
0g
0f
xe
xd
1c
1b
0a
0`
1_
1^
0]
0\
x[
1Z
1Y
0X
0W
1V
1U
0T
0S
xR
xQ
1P
1O
0N
0M
1L
1K
0J
0I
xH
1G
1F
0E
0D
1C
1B
0A
0@
x?
1>
1=
0<
0;
1:
19
08
07
x6
x5
x4
x3
x2
x1
x0
x/
x.
bx -
0,
0+
0*
0)
bx (
0'
0&
0%
0$
0#
0"
x!
$end
#1000
0!
06
0x
1y
1R
11
10
15
13
1/
1.
1e
1n
1Q
1[
1?
1H
1d
0o
04
02
b0 (
b0 -
1'
#11000
0'
#17000
1!
16
1x
00
0n
1o
1*
1#
#34000
0!
06
0x
10
1n
0o
0*
0#
#37000
1+
1$
#51000
1!
16
1x
00
0n
1o
1*
1#
#57000
0/
0?
1)
1%
#68000
0!
06
0x
10
1n
0o
0*
0#
#74000
0+
0$
#85000
1!
16
1x
00
0n
1o
1*
1#
#97000
1,
1&
#102000
0!
06
0x
10
1n
0o
0*
0#
#111000
1+
1$
#114000
1/
1?
0)
0%
#119000
1!
16
1x
00
0n
1o
1*
1#
#136000
0!
06
0x
10
1n
0o
0*
0#
#148000
0+
0$
#153000
1!
16
1x
00
0n
1o
1*
1#
#170000
0!
06
0x
10
1n
0o
0*
0#
#171000
0/
0?
1)
1%
#185000
1+
1$
#187000
1!
16
1x
00
0n
1o
1*
1#
#194000
0,
0&
#200000
0R
0.
0H
0d
12
b1 (
b1 -
1"
#204000
0*
0#
#221000
1*
1#
#222000
0!
06
0x
10
1n
01
0e
0+
0$
#228000
0)
0%
#238000
0*
0#
#255000
1*
1#
#259000
1!
16
1x
00
0n
11
1e
1+
1$
#272000
0*
0#
#285000
1)
1%
#289000
1*
1#
#291000
1R
1,
1&
#296000
0!
06
0x
10
1n
01
0e
0+
0$
#306000
0*
0#
#323000
1*
1#
#333000
1!
16
1x
00
0n
11
1e
1+
1$
#340000
0*
0#
#342000
0)
0%
#357000
1*
1#
#370000
0!
06
0x
10
1n
01
0e
0+
0$
#374000
0*
0#
#388000
0R
0,
0&
#391000
1*
1#
#399000
1)
1%
#400000
0"
#407000
1!
16
1x
00
0n
11
1e
1+
1$
#408000
0*
0#
#425000
1*
1#
#442000
0*
0#
#444000
0!
06
0x
10
1n
01
0e
0+
0$
#456000
0)
0%
#459000
1*
1#
#476000
0*
0#
#481000
1!
16
1x
00
0n
11
1e
1+
1$
#485000
1R
1,
1&
#493000
1*
1#
#510000
0*
0#
#513000
1)
1%
#518000
0!
06
0x
10
1n
01
0e
0+
0$
#527000
1*
1#
#544000
0*
0#
#555000
1!
16
1x
00
0n
11
1e
1+
1$
#561000
1*
1#
#570000
0)
0%
#578000
0*
0#
#582000
0R
0,
0&
#592000
0!
06
0x
10
1n
01
0e
0+
0$
#595000
1*
1#
#600000
05
0Q
1R
11
03
1/
1.
1e
0[
1?
1H
1d
14
02
b10 (
b10 -
1"
#612000
0o
0*
0#
#627000
1!
16
1x
0y
0/
0?
1)
1%
#629000
1o
1*
1#
1+
1$
#646000
0o
0*
0#
#663000
1o
1*
1#
#666000
0+
0$
#679000
1,
1&
#680000
0o
0*
0#
#684000
0!
06
0x
1y
1/
1?
0)
0%
#697000
1o
1*
1#
#703000
1+
1$
#714000
0o
0*
0#
#731000
1o
1*
1#
#740000
0+
0$
#741000
1!
16
1x
0y
0/
0?
1)
1%
#748000
0o
0*
0#
#765000
1o
1*
1#
#776000
0,
0&
#777000
1+
1$
#782000
0o
0*
0#
#798000
0!
06
0x
1y
1/
1?
0)
0%
#799000
1o
1*
1#
#800000
0"
#814000
0+
0$
#816000
0o
0*
0#
#833000
1o
1*
1#
#850000
0o
0*
0#
#851000
1+
1$
#855000
1!
16
1x
0y
0/
0?
1)
1%
#867000
1o
1*
1#
#873000
1,
1&
#884000
0o
0*
0#
#888000
0+
0$
#901000
1o
1*
1#
#912000
0!
06
0x
1y
1/
1?
0)
0%
#918000
0o
0*
0#
#925000
1+
1$
#935000
1o
1*
1#
#952000
0o
0*
0#
#962000
0+
0$
#969000
1!
16
1x
0y
0/
1o
0?
1*
1#
1)
1%
#970000
0,
0&
#986000
0o
0*
0#
#999000
1+
1$
#1000000
0!
06
0x
1y
15
1Q
0R
0.
0H
0d
1o
12
b11 (
b11 -
1"
#1003000
1*
1#
#1020000
0*
0#
#1026000
0)
0%
#1036000
01
0e
0+
0$
#1037000
1*
1#
#1054000
0*
0#
#1067000
1!
16
1x
0y
05
0Q
1R
1,
1&
#1071000
1*
1#
#1073000
11
1e
1+
1$
#1083000
1)
1%
#1088000
0*
0#
#1105000
1*
1#
#1110000
01
0e
0+
0$
#1122000
0*
0#
#1139000
1*
1#
#1140000
0)
0%
#1147000
11
1e
1+
1$
#1156000
0*
0#
#1164000
0!
06
0x
1y
15
1Q
0R
0,
0&
#1173000
1*
1#
#1184000
01
0e
0+
0$
#1190000
0*
0#
#1197000
1)
1%
#1200000
0"
#1207000
1*
1#
#1221000
11
1e
1+
1$
#1224000
0*
0#
#1241000
1*
1#
#1254000
0)
0%
#1258000
01
0e
0*
0#
0+
0$
#1261000
1!
16
1x
0y
05
0Q
1R
1,
1&
#1275000
1*
1#
#1292000
0*
0#
#1295000
11
1e
1+
1$
#1309000
1*
1#
#1311000
1)
1%
#1326000
0*
0#
#1332000
01
0e
0+
0$
#1343000
1*
1#
#1358000
0!
06
0x
1y
15
1Q
0R
0,
0&
#1360000
0*
0#
#1368000
0)
0%
#1369000
11
1e
1+
1$
#1377000
1*
1#
#1394000
0*
0#
#1400000
1R
13
1/
1.
1[
1?
1H
1d
0o
04
02
b0 (
b0 -
1"
#1406000
0+
0$
#1411000
1!
16
1x
00
0n
1o
1*
1#
#1425000
0/
0?
1)
1%
#1428000
0!
06
0x
10
1n
0o
0*
0#
#1443000
1+
1$
#1445000
1!
16
1x
00
0n
1o
1*
1#
#1455000
1,
1&
#1462000
0!
06
0x
10
1n
0o
0*
0#
#1479000
1!
16
1x
00
0n
1o
1*
1#
#1480000
0+
0$
#1482000
1/
1?
0)
0%
#1496000
0!
06
0x
10
1n
0o
0*
0#
#1513000
1!
16
1x
00
0n
1o
1*
1#
#1517000
1+
1$
#1530000
0!
06
0x
10
1n
0o
0*
0#
#1539000
0/
0?
1)
1%
#1547000
1!
16
1x
00
0n
1o
1*
1#
#1552000
0,
0&
#1554000
0+
0$
#1564000
0!
06
0x
10
1n
0o
0*
0#
#1581000
1!
16
1x
00
0n
1o
1*
1#
#1591000
1+
1$
#1596000
1/
1?
0)
0%
#1598000
0!
06
0x
10
1n
0o
0*
0#
#1600000
0"
#1615000
1!
16
1x
00
0n
1o
1*
1#
#1628000
0+
0$
#1632000
0!
06
0x
10
1n
0o
0*
0#
#1649000
1!
16
1x
00
0n
1o
1*
1#
1,
1&
#1653000
0/
0?
1)
1%
#1665000
1+
1$
#1666000
0!
06
0x
10
1n
0o
0*
0#
#1683000
1!
16
1x
00
0n
1o
1*
1#
#1700000
0!
06
0x
10
1n
0o
0*
0#
#1702000
0+
0$
#1710000
1/
1?
0)
0%
#1717000
1!
16
1x
00
0n
1o
1*
1#
#1734000
0!
06
0x
10
1n
0o
0*
0#
#1739000
1+
1$
#1746000
0,
0&
#1751000
1!
16
1x
00
0n
1o
1*
1#
#1767000
0/
0?
1)
1%
#1768000
0!
06
0x
10
1n
0o
0*
0#
#1776000
0+
0$
#1785000
1!
16
1x
00
0n
1o
1*
1#
#1800000
0!
06
0x
10
1n
0R
01
0.
0e
0H
0d
12
b1 (
b1 -
1"
#1802000
0*
0#
#1813000
1!
16
1x
00
0n
11
1e
1+
1$
#1819000
1*
1#
#1824000
0)
0%
#1836000
0*
0#
#1843000
1R
1,
1&
#1850000
0!
06
0x
10
1n
01
0e
0+
0$
#1853000
1*
1#
#1870000
0*
0#
#1881000
1)
1%
#1887000
1!
16
1x
00
0n
11
1e
1*
1#
1+
1$
#1904000
0*
0#
#1921000
1*
1#
#1924000
0!
06
0x
10
1n
01
0e
0+
0$
#1938000
0*
0#
0)
0%
#1940000
0R
0,
0&
#1955000
1*
1#
#1961000
1!
16
1x
00
0n
11
1e
1+
1$
#1972000
0*
0#
#1989000
1*
1#
#1995000
1)
1%
#1998000
0!
06
0x
10
1n
01
0e
0+
0$
#2000000
0"
#2006000
0*
0#
#2023000
1*
1#
#2035000
1!
16
1x
00
0n
11
1e
1+
1$
#2037000
1R
1,
1&
#2040000
0*
0#
#2052000
0)
0%
#2057000
1*
1#
#2072000
0!
06
0x
10
1n
01
0e
0+
0$
#2074000
0*
0#
#2091000
1*
1#
#2108000
0*
0#
#2109000
1!
16
1x
00
0n
11
1e
1+
1$
1)
1%
#2125000
1*
1#
#2134000
0R
0,
0&
#2142000
0*
0#
#2146000
0!
06
0x
10
1n
01
0e
0+
0$
#2159000
1*
1#
#2166000
0)
0%
#2176000
0*
0#
#2183000
1!
16
1x
00
0n
11
1e
1+
1$
#2193000
1*
1#
#2200000
0!
06
0x
05
10
0Q
1n
1R
03
1/
1.
0[
1?
1H
1d
14
02
b10 (
b10 -
1"
#2210000
0o
0*
0#
#2220000
0+
0$
#2223000
1!
16
1x
0y
0/
0?
1)
1%
#2227000
1o
1*
1#
#2231000
1,
1&
#2244000
0o
0*
0#
#2257000
1+
1$
#2261000
1o
1*
1#
#2278000
0o
0*
0#
#2280000
0!
06
0x
1y
1/
1?
0)
0%
#2294000
0+
0$
#2295000
1o
1*
1#
#2312000
0o
0*
0#
#2328000
0,
0&
#2329000
1o
1*
1#
#2331000
1+
1$
#2337000
1!
16
1x
0y
0/
0?
1)
1%
#2346000
0o
0*
0#
#2363000
1o
1*
1#
#2368000
0+
0$
#2380000
0o
0*
0#
#2394000
0!
06
0x
1y
1/
1?
0)
0%
#2397000
1o
1*
1#
#2400000
0"
#2405000
1+
1$
#2414000
0o
0*
0#
#2425000
1,
1&
#2431000
1o
1*
1#
#2442000
0+
0$
#2448000
0o
0*
0#
#2451000
1!
16
1x
0y
0/
0?
1)
1%
#2465000
1o
1*
1#
#2479000
1+
1$
#2482000
0o
0*
0#
#2499000
1o
1*
1#
#2508000
0!
06
0x
1y
1/
1?
0)
0%
#2516000
0o
0*
0#
0+
0$
#2522000
0,
0&
#2533000
1o
1*
1#
#2550000
0o
0*
0#
#2553000
1+
1$
#2565000
1!
16
1x
0y
0/
0?
1)
1%
#2567000
1o
1*
1#
#2584000
0o
0*
0#
#2590000
0+
0$
#2600000
0!
06
0x
1y
15
1Q
0R
01
0.
0e
0H
0d
1o
12
b11 (
b11 -
1"
#2601000
1*
1#
#2618000
0*
0#
#2619000
1!
16
1x
0y
05
0Q
1R
1,
1&
#2622000
0)
0%
#2627000
11
1e
1+
1$
#2635000
1*
1#
#2652000
0*
0#
#2664000
01
0e
0+
0$
#2669000
1*
1#
#2679000
1)
1%
#2686000
0*
0#
#2701000
11
1e
1+
1$
#2703000
1*
1#
#2716000
0!
06
0x
1y
15
1Q
0R
0,
0&
#2720000
0*
0#
#2736000
0)
0%
#2737000
1*
1#
#2738000
01
0e
0+
0$
#2754000
0*
0#
#2771000
1*
1#
#2775000
11
1e
1+
1$
#2788000
0*
0#
#2793000
1)
1%
#2800000
0"
#2805000
1*
1#
#2812000
01
0e
0+
0$
#2813000
1!
16
1x
0y
05
0Q
1R
1,
1&
#2822000
0*
0#
#2839000
1*
1#
#2849000
11
1e
1+
1$
#2850000
0)
0%
#2856000
0*
0#
#2873000
1*
1#
#2886000
01
0e
0+
0$
#2890000
0*
0#
#2907000
1*
1#
1)
1%
#2910000
0!
06
0x
1y
15
1Q
0R
0,
0&
#2923000
11
1e
1+
1$
#2924000
0*
0#
#2941000
1*
1#
#2958000
0*
0#
#2960000
01
0e
0+
0$
#2964000
0)
0%
#2975000
1*
1#
#2992000
0*
0#
#2997000
11
1e
1+
1$
#3000000
1R
13
1/
1.
1[
1?
1H
1d
0o
04
02
b0 (
b0 -
1"
#3007000
1,
1&
#3009000
1!
16
1x
00
0n
1o
1*
1#
